Model: "model_3"
__________________________________________________________________________________________________
Layer (type)                    Output Shape         Param #     Connected to                     
==================================================================================================
input_4 (InputLayer)            [(None, 90, 2)]      0                                            
__________________________________________________________________________________________________
max_pooling1d_2 (MaxPooling1D)  (None, 90, 2)        0           input_4[0][0]                    
__________________________________________________________________________________________________
conv1d_8 (Conv1D)               (None, 90, 32)       2560        input_4[0][0]                    
__________________________________________________________________________________________________
conv1d_9 (Conv1D)               (None, 90, 32)       1280        input_4[0][0]                    
__________________________________________________________________________________________________
conv1d_10 (Conv1D)              (None, 90, 32)       640         input_4[0][0]                    
__________________________________________________________________________________________________
conv1d_11 (Conv1D)              (None, 90, 32)       64          max_pooling1d_2[0][0]            
__________________________________________________________________________________________________
concatenate (Concatenate)       (None, 90, 128)      0           conv1d_8[0][0]                   
                                                                 conv1d_9[0][0]                   
                                                                 conv1d_10[0][0]                  
                                                                 conv1d_11[0][0]                  
__________________________________________________________________________________________________
batch_normalization_3 (BatchNor (None, 90, 128)      512         concatenate[0][0]                
__________________________________________________________________________________________________
activation_3 (Activation)       (None, 90, 128)      0           batch_normalization_3[0][0]      
__________________________________________________________________________________________________
conv1d_12 (Conv1D)              (None, 90, 32)       4096        activation_3[0][0]               
__________________________________________________________________________________________________
max_pooling1d_3 (MaxPooling1D)  (None, 90, 128)      0           activation_3[0][0]               
__________________________________________________________________________________________________
conv1d_13 (Conv1D)              (None, 90, 32)       40960       conv1d_12[0][0]                  
__________________________________________________________________________________________________
conv1d_14 (Conv1D)              (None, 90, 32)       20480       conv1d_12[0][0]                  
__________________________________________________________________________________________________
conv1d_15 (Conv1D)              (None, 90, 32)       10240       conv1d_12[0][0]                  
__________________________________________________________________________________________________
conv1d_16 (Conv1D)              (None, 90, 32)       4096        max_pooling1d_3[0][0]            
__________________________________________________________________________________________________
concatenate_1 (Concatenate)     (None, 90, 128)      0           conv1d_13[0][0]                  
                                                                 conv1d_14[0][0]                  
                                                                 conv1d_15[0][0]                  
                                                                 conv1d_16[0][0]                  
__________________________________________________________________________________________________
batch_normalization_4 (BatchNor (None, 90, 128)      512         concatenate_1[0][0]              
__________________________________________________________________________________________________
activation_4 (Activation)       (None, 90, 128)      0           batch_normalization_4[0][0]      
__________________________________________________________________________________________________
conv1d_17 (Conv1D)              (None, 90, 32)       4096        activation_4[0][0]               
__________________________________________________________________________________________________
max_pooling1d_4 (MaxPooling1D)  (None, 90, 128)      0           activation_4[0][0]               
__________________________________________________________________________________________________
conv1d_18 (Conv1D)              (None, 90, 32)       40960       conv1d_17[0][0]                  
__________________________________________________________________________________________________
conv1d_19 (Conv1D)              (None, 90, 32)       20480       conv1d_17[0][0]                  
__________________________________________________________________________________________________
conv1d_20 (Conv1D)              (None, 90, 32)       10240       conv1d_17[0][0]                  
__________________________________________________________________________________________________
conv1d_21 (Conv1D)              (None, 90, 32)       4096        max_pooling1d_4[0][0]            
__________________________________________________________________________________________________
concatenate_2 (Concatenate)     (None, 90, 128)      0           conv1d_18[0][0]                  
                                                                 conv1d_19[0][0]                  
                                                                 conv1d_20[0][0]                  
                                                                 conv1d_21[0][0]                  
__________________________________________________________________________________________________
conv1d_22 (Conv1D)              (None, 90, 128)      256         input_4[0][0]                    
__________________________________________________________________________________________________
batch_normalization_5 (BatchNor (None, 90, 128)      512         concatenate_2[0][0]              
__________________________________________________________________________________________________
batch_normalization_6 (BatchNor (None, 90, 128)      512         conv1d_22[0][0]                  
__________________________________________________________________________________________________
activation_5 (Activation)       (None, 90, 128)      0           batch_normalization_5[0][0]      
__________________________________________________________________________________________________
add (Add)                       (None, 90, 128)      0           batch_normalization_6[0][0]      
                                                                 activation_5[0][0]               
__________________________________________________________________________________________________
activation_6 (Activation)       (None, 90, 128)      0           add[0][0]                        
__________________________________________________________________________________________________
conv1d_23 (Conv1D)              (None, 90, 32)       4096        activation_6[0][0]               
__________________________________________________________________________________________________
max_pooling1d_5 (MaxPooling1D)  (None, 90, 128)      0           activation_6[0][0]               
__________________________________________________________________________________________________
conv1d_24 (Conv1D)              (None, 90, 32)       40960       conv1d_23[0][0]                  
__________________________________________________________________________________________________
conv1d_25 (Conv1D)              (None, 90, 32)       20480       conv1d_23[0][0]                  
__________________________________________________________________________________________________
conv1d_26 (Conv1D)              (None, 90, 32)       10240       conv1d_23[0][0]                  
__________________________________________________________________________________________________
conv1d_27 (Conv1D)              (None, 90, 32)       4096        max_pooling1d_5[0][0]            
__________________________________________________________________________________________________
concatenate_3 (Concatenate)     (None, 90, 128)      0           conv1d_24[0][0]                  
                                                                 conv1d_25[0][0]                  
                                                                 conv1d_26[0][0]                  
                                                                 conv1d_27[0][0]                  
__________________________________________________________________________________________________
batch_normalization_7 (BatchNor (None, 90, 128)      512         concatenate_3[0][0]              
__________________________________________________________________________________________________
activation_7 (Activation)       (None, 90, 128)      0           batch_normalization_7[0][0]      
__________________________________________________________________________________________________
conv1d_28 (Conv1D)              (None, 90, 32)       4096        activation_7[0][0]               
__________________________________________________________________________________________________
max_pooling1d_6 (MaxPooling1D)  (None, 90, 128)      0           activation_7[0][0]               
__________________________________________________________________________________________________
conv1d_29 (Conv1D)              (None, 90, 32)       40960       conv1d_28[0][0]                  
__________________________________________________________________________________________________
conv1d_30 (Conv1D)              (None, 90, 32)       20480       conv1d_28[0][0]                  
__________________________________________________________________________________________________
conv1d_31 (Conv1D)              (None, 90, 32)       10240       conv1d_28[0][0]                  
__________________________________________________________________________________________________
conv1d_32 (Conv1D)              (None, 90, 32)       4096        max_pooling1d_6[0][0]            
__________________________________________________________________________________________________
concatenate_4 (Concatenate)     (None, 90, 128)      0           conv1d_29[0][0]                  
                                                                 conv1d_30[0][0]                  
                                                                 conv1d_31[0][0]                  
                                                                 conv1d_32[0][0]                  
__________________________________________________________________________________________________
batch_normalization_8 (BatchNor (None, 90, 128)      512         concatenate_4[0][0]              
__________________________________________________________________________________________________
activation_8 (Activation)       (None, 90, 128)      0           batch_normalization_8[0][0]      
__________________________________________________________________________________________________
conv1d_33 (Conv1D)              (None, 90, 32)       4096        activation_8[0][0]               
__________________________________________________________________________________________________
max_pooling1d_7 (MaxPooling1D)  (None, 90, 128)      0           activation_8[0][0]               
__________________________________________________________________________________________________
conv1d_34 (Conv1D)              (None, 90, 32)       40960       conv1d_33[0][0]                  
__________________________________________________________________________________________________
conv1d_35 (Conv1D)              (None, 90, 32)       20480       conv1d_33[0][0]                  
__________________________________________________________________________________________________
conv1d_36 (Conv1D)              (None, 90, 32)       10240       conv1d_33[0][0]                  
__________________________________________________________________________________________________
conv1d_37 (Conv1D)              (None, 90, 32)       4096        max_pooling1d_7[0][0]            
__________________________________________________________________________________________________
concatenate_5 (Concatenate)     (None, 90, 128)      0           conv1d_34[0][0]                  
                                                                 conv1d_35[0][0]                  
                                                                 conv1d_36[0][0]                  
                                                                 conv1d_37[0][0]                  
__________________________________________________________________________________________________
conv1d_38 (Conv1D)              (None, 90, 128)      16384       activation_6[0][0]               
__________________________________________________________________________________________________
batch_normalization_9 (BatchNor (None, 90, 128)      512         concatenate_5[0][0]              
__________________________________________________________________________________________________
batch_normalization_10 (BatchNo (None, 90, 128)      512         conv1d_38[0][0]                  
__________________________________________________________________________________________________
activation_9 (Activation)       (None, 90, 128)      0           batch_normalization_9[0][0]      
__________________________________________________________________________________________________
add_1 (Add)                     (None, 90, 128)      0           batch_normalization_10[0][0]     
                                                                 activation_9[0][0]               
__________________________________________________________________________________________________
activation_10 (Activation)      (None, 90, 128)      0           add_1[0][0]                      
__________________________________________________________________________________________________
global_average_pooling1d_1 (Glo (None, 128)          0           activation_10[0][0]              
__________________________________________________________________________________________________
dense_4 (Dense)                 (None, 20)           2580        global_average_pooling1d_1[0][0] 
==================================================================================================
Total params: 427,220
Trainable params: 425,172
Non-trainable params: 2,048
__________________________________________________________________________________________________
