Classification Report
              precision    recall  f1-score   support

           0       0.23      0.25      0.24       501
           1       0.42      0.39      0.41       403
           2       0.20      0.11      0.14       529
           3       0.00      0.00      0.00       496
           4       0.00      0.00      0.00       476
           5       0.02      0.06      0.03       252
           6       0.16      0.15      0.15       524
           7       0.12      0.07      0.09       517
           8       0.15      0.10      0.12       537
           9       0.16      0.09      0.11       515
          10       0.06      0.06      0.06       297
          11       0.13      0.17      0.14       508
          12       0.12      0.11      0.12       533
          13       0.13      0.14      0.13       537
          14       0.05      0.13      0.07       411
          15       0.09      0.05      0.06       311
          16       0.05      0.06      0.05       285
          17       0.25      0.12      0.16       532
          18       0.14      0.18      0.16       514
          19       0.03      0.04      0.03       397

    accuracy                           0.12      9075
   macro avg       0.12      0.11      0.11      9075
weighted avg       0.13      0.12      0.12      9075
