Classification Report
              precision    recall  f1-score   support

           0       0.05      0.04      0.04       522
           1       0.46      0.62      0.53       428
           2       0.08      0.06      0.07       534
           3       0.47      0.06      0.11       414
           4       0.04      0.06      0.05       473
           5       0.22      0.17      0.19       435
           6       0.17      0.18      0.18       529
           7       0.09      0.12      0.10       521
           8       0.20      0.30      0.24       537
           9       0.08      0.07      0.08       514
          10       0.09      0.11      0.10       296
          11       0.26      0.33      0.29       529
          12       0.26      0.25      0.26       536
          13       0.27      0.17      0.21       533
          14       0.09      0.07      0.08       537
          15       0.10      0.27      0.14        83
          16       0.15      0.27      0.19       260
          17       0.16      0.16      0.16       521
          18       0.14      0.16      0.15       512
          19       0.13      0.04      0.06       493

    accuracy                           0.17      9207
   macro avg       0.18      0.18      0.16      9207
weighted avg       0.18      0.17      0.16      9207
