Model: "model_5"
__________________________________________________________________________________________________
Layer (type)                    Output Shape         Param #     Connected to                     
==================================================================================================
input_6 (InputLayer)            [(None, 90, 2)]      0                                            
__________________________________________________________________________________________________
conv1d_39 (Conv1D)              (None, 90, 64)       1088        input_6[0][0]                    
__________________________________________________________________________________________________
batch_normalization_11 (BatchNo (None, 90, 64)       256         conv1d_39[0][0]                  
__________________________________________________________________________________________________
activation_11 (Activation)      (None, 90, 64)       0           batch_normalization_11[0][0]     
__________________________________________________________________________________________________
conv1d_40 (Conv1D)              (None, 90, 64)       20544       activation_11[0][0]              
__________________________________________________________________________________________________
batch_normalization_12 (BatchNo (None, 90, 64)       256         conv1d_40[0][0]                  
__________________________________________________________________________________________________
activation_12 (Activation)      (None, 90, 64)       0           batch_normalization_12[0][0]     
__________________________________________________________________________________________________
conv1d_42 (Conv1D)              (None, 90, 64)       192         input_6[0][0]                    
__________________________________________________________________________________________________
conv1d_41 (Conv1D)              (None, 90, 64)       12352       activation_12[0][0]              
__________________________________________________________________________________________________
batch_normalization_14 (BatchNo (None, 90, 64)       256         conv1d_42[0][0]                  
__________________________________________________________________________________________________
batch_normalization_13 (BatchNo (None, 90, 64)       256         conv1d_41[0][0]                  
__________________________________________________________________________________________________
add_2 (Add)                     (None, 90, 64)       0           batch_normalization_14[0][0]     
                                                                 batch_normalization_13[0][0]     
__________________________________________________________________________________________________
activation_13 (Activation)      (None, 90, 64)       0           add_2[0][0]                      
__________________________________________________________________________________________________
conv1d_43 (Conv1D)              (None, 90, 128)      65664       activation_13[0][0]              
__________________________________________________________________________________________________
batch_normalization_15 (BatchNo (None, 90, 128)      512         conv1d_43[0][0]                  
__________________________________________________________________________________________________
activation_14 (Activation)      (None, 90, 128)      0           batch_normalization_15[0][0]     
__________________________________________________________________________________________________
conv1d_44 (Conv1D)              (None, 90, 128)      82048       activation_14[0][0]              
__________________________________________________________________________________________________
batch_normalization_16 (BatchNo (None, 90, 128)      512         conv1d_44[0][0]                  
__________________________________________________________________________________________________
activation_15 (Activation)      (None, 90, 128)      0           batch_normalization_16[0][0]     
__________________________________________________________________________________________________
conv1d_46 (Conv1D)              (None, 90, 128)      8320        activation_13[0][0]              
__________________________________________________________________________________________________
conv1d_45 (Conv1D)              (None, 90, 128)      49280       activation_15[0][0]              
__________________________________________________________________________________________________
batch_normalization_18 (BatchNo (None, 90, 128)      512         conv1d_46[0][0]                  
__________________________________________________________________________________________________
batch_normalization_17 (BatchNo (None, 90, 128)      512         conv1d_45[0][0]                  
__________________________________________________________________________________________________
add_3 (Add)                     (None, 90, 128)      0           batch_normalization_18[0][0]     
                                                                 batch_normalization_17[0][0]     
__________________________________________________________________________________________________
activation_16 (Activation)      (None, 90, 128)      0           add_3[0][0]                      
__________________________________________________________________________________________________
conv1d_47 (Conv1D)              (None, 90, 128)      131200      activation_16[0][0]              
__________________________________________________________________________________________________
batch_normalization_19 (BatchNo (None, 90, 128)      512         conv1d_47[0][0]                  
__________________________________________________________________________________________________
activation_17 (Activation)      (None, 90, 128)      0           batch_normalization_19[0][0]     
__________________________________________________________________________________________________
conv1d_48 (Conv1D)              (None, 90, 128)      82048       activation_17[0][0]              
__________________________________________________________________________________________________
batch_normalization_20 (BatchNo (None, 90, 128)      512         conv1d_48[0][0]                  
__________________________________________________________________________________________________
activation_18 (Activation)      (None, 90, 128)      0           batch_normalization_20[0][0]     
__________________________________________________________________________________________________
conv1d_49 (Conv1D)              (None, 90, 128)      49280       activation_18[0][0]              
__________________________________________________________________________________________________
batch_normalization_22 (BatchNo (None, 90, 128)      512         activation_16[0][0]              
__________________________________________________________________________________________________
batch_normalization_21 (BatchNo (None, 90, 128)      512         conv1d_49[0][0]                  
__________________________________________________________________________________________________
add_4 (Add)                     (None, 90, 128)      0           batch_normalization_22[0][0]     
                                                                 batch_normalization_21[0][0]     
__________________________________________________________________________________________________
activation_19 (Activation)      (None, 90, 128)      0           add_4[0][0]                      
__________________________________________________________________________________________________
global_average_pooling1d_2 (Glo (None, 128)          0           activation_19[0][0]              
__________________________________________________________________________________________________
dense_9 (Dense)                 (None, 20)           2580        global_average_pooling1d_2[0][0] 
==================================================================================================
Total params: 509,716
Trainable params: 507,156
Non-trainable params: 2,560
__________________________________________________________________________________________________
