Classification Report
              precision    recall  f1-score   support

           0       0.02      0.01      0.02       517
           1       0.52      0.66      0.58       457
           2       0.10      0.03      0.04       500
           3       0.24      0.19      0.21       327
           4       0.00      0.00      0.00       526
           5       0.39      0.33      0.36       483
           6       0.16      0.09      0.11       532
           7       0.17      0.15      0.16       522
           8       0.24      0.15      0.19       537
           9       0.08      0.05      0.06       495
          10       0.04      0.04      0.04       455
          11       0.29      0.35      0.32       527
          12       0.16      0.47      0.24       537
          13       0.23      0.54      0.32       536
          14       0.05      0.01      0.01       537
          15       0.17      0.08      0.10       319
          16       0.16      0.07      0.09       384
          17       0.22      0.28      0.24       517
          18       0.24      0.06      0.10       525
          19       0.17      0.20      0.19       521

    accuracy                           0.19      9754
   macro avg       0.18      0.19      0.17      9754
weighted avg       0.18      0.19      0.17      9754
