Model: "model_4"
_________________________________________________________________
Layer (type)                 Output Shape              Param #   
=================================================================
input_5 (InputLayer)         [(None, 90, 2)]           0         
_________________________________________________________________
flatten_2 (Flatten)          (None, 180)               0         
_________________________________________________________________
dropout_3 (Dropout)          (None, 180)               0         
_________________________________________________________________
dense_5 (Dense)              (None, 500)               90500     
_________________________________________________________________
dropout_4 (Dropout)          (None, 500)               0         
_________________________________________________________________
dense_6 (Dense)              (None, 500)               250500    
_________________________________________________________________
dropout_5 (Dropout)          (None, 500)               0         
_________________________________________________________________
dense_7 (Dense)              (None, 500)               250500    
_________________________________________________________________
dropout_6 (Dropout)          (None, 500)               0         
_________________________________________________________________
dense_8 (Dense)              (None, 20)                10020     
=================================================================
Total params: 601,520
Trainable params: 601,520
Non-trainable params: 0
_________________________________________________________________
