Model: "model_1"
__________________________________________________________________________________________________
Layer (type)                    Output Shape         Param #     Connected to                     
==================================================================================================
input_2 (InputLayer)            [(None, 90, 2)]      0                                            
__________________________________________________________________________________________________
conv1d_2 (Conv1D)               (None, 90, 128)      1408        input_2[0][0]                    
__________________________________________________________________________________________________
instance_normalization (Instanc (None, 90, 128)      256         conv1d_2[0][0]                   
__________________________________________________________________________________________________
p_re_lu (PReLU)                 (None, 90, 128)      128         instance_normalization[0][0]     
__________________________________________________________________________________________________
dropout (Dropout)               (None, 90, 128)      0           p_re_lu[0][0]                    
__________________________________________________________________________________________________
max_pooling1d (MaxPooling1D)    (None, 45, 128)      0           dropout[0][0]                    
__________________________________________________________________________________________________
conv1d_3 (Conv1D)               (None, 45, 256)      360704      max_pooling1d[0][0]              
__________________________________________________________________________________________________
instance_normalization_1 (Insta (None, 45, 256)      512         conv1d_3[0][0]                   
__________________________________________________________________________________________________
p_re_lu_1 (PReLU)               (None, 45, 256)      256         instance_normalization_1[0][0]   
__________________________________________________________________________________________________
dropout_1 (Dropout)             (None, 45, 256)      0           p_re_lu_1[0][0]                  
__________________________________________________________________________________________________
max_pooling1d_1 (MaxPooling1D)  (None, 22, 256)      0           dropout_1[0][0]                  
__________________________________________________________________________________________________
conv1d_4 (Conv1D)               (None, 22, 512)      2753024     max_pooling1d_1[0][0]            
__________________________________________________________________________________________________
instance_normalization_2 (Insta (None, 22, 512)      1024        conv1d_4[0][0]                   
__________________________________________________________________________________________________
p_re_lu_2 (PReLU)               (None, 22, 512)      512         instance_normalization_2[0][0]   
__________________________________________________________________________________________________
dropout_2 (Dropout)             (None, 22, 512)      0           p_re_lu_2[0][0]                  
__________________________________________________________________________________________________
lambda_1 (Lambda)               (None, 22, 256)      0           dropout_2[0][0]                  
__________________________________________________________________________________________________
softmax (Softmax)               (None, 22, 256)      0           lambda_1[0][0]                   
__________________________________________________________________________________________________
lambda (Lambda)                 (None, 22, 256)      0           dropout_2[0][0]                  
__________________________________________________________________________________________________
multiply (Multiply)             (None, 22, 256)      0           softmax[0][0]                    
                                                                 lambda[0][0]                     
__________________________________________________________________________________________________
dense_1 (Dense)                 (None, 22, 256)      65792       multiply[0][0]                   
__________________________________________________________________________________________________
instance_normalization_3 (Insta (None, 22, 256)      512         dense_1[0][0]                    
__________________________________________________________________________________________________
flatten_1 (Flatten)             (None, 5632)         0           instance_normalization_3[0][0]   
__________________________________________________________________________________________________
dense_2 (Dense)                 (None, 20)           112660      flatten_1[0][0]                  
==================================================================================================
Total params: 3,296,788
Trainable params: 3,296,788
Non-trainable params: 0
__________________________________________________________________________________________________
