Model: "model_2"
_________________________________________________________________
Layer (type)                 Output Shape              Param #   
=================================================================
input_3 (InputLayer)         [(None, 90, 2)]           0         
_________________________________________________________________
conv1d_5 (Conv1D)            (None, 90, 128)           2176      
_________________________________________________________________
batch_normalization (BatchNo (None, 90, 128)           512       
_________________________________________________________________
activation (Activation)      (None, 90, 128)           0         
_________________________________________________________________
conv1d_6 (Conv1D)            (None, 90, 256)           164096    
_________________________________________________________________
batch_normalization_1 (Batch (None, 90, 256)           1024      
_________________________________________________________________
activation_1 (Activation)    (None, 90, 256)           0         
_________________________________________________________________
conv1d_7 (Conv1D)            (None, 90, 128)           98432     
_________________________________________________________________
batch_normalization_2 (Batch (None, 90, 128)           512       
_________________________________________________________________
activation_2 (Activation)    (None, 90, 128)           0         
_________________________________________________________________
global_average_pooling1d (Gl (None, 128)               0         
_________________________________________________________________
dense_3 (Dense)              (None, 20)                2580      
=================================================================
Total params: 269,332
Trainable params: 268,308
Non-trainable params: 1,024
_________________________________________________________________
