Classification Report
              precision    recall  f1-score   support

           0       0.04      0.04      0.04       776
           1       0.49      0.66      0.56       718
           2       0.11      0.09      0.10       797
           3       0.00      0.00      0.00       806
           4       0.12      0.07      0.09       743
           5       0.01      0.01      0.01       519
           6       0.14      0.16      0.15       800
           7       0.22      0.21      0.22       776
           8       0.23      0.24      0.24       804
           9       0.19      0.17      0.18       790
          10       0.15      0.14      0.14       693
          11       0.41      0.70      0.52       775
          12       0.12      0.10      0.11       804
          13       0.23      0.21      0.22       804
          14       0.02      0.02      0.02       634
          15       0.22      0.32      0.26       722
          16       0.24      0.17      0.20       742
          17       0.17      0.15      0.16       797
          18       0.14      0.17      0.15       784
          19       0.22      0.31      0.26       731

    accuracy                           0.20     15015
   macro avg       0.17      0.20      0.18     15015
weighted avg       0.18      0.20      0.18     15015
